^F:\COCOS2D-X\ARROW.IO\CLASSES\APPDELEGATE.CPP|F:\COCOS2D-X\ARROW.IO\CLASSES\HELLOWORLDSCENE.CPP|F:\COCOS2D-X\ARROW.IO\PROJ.WIN32\BULLETBASE.CPP|F:\COCOS2D-X\ARROW.IO\PROJ.WIN32\ENTITY.CPP|F:\COCOS2D-X\ARROW.IO\PROJ.WIN32\FONTTOUTF8.CPP|F:\COCOS2D-X\ARROW.IO\PROJ.WIN32\GAMEPLAYING.CPP|F:\COCOS2D-X\ARROW.IO\PROJ.WIN32\HELP.CPP|F:\COCOS2D-X\ARROW.IO\PROJ.WIN32\MAIN.CPP|F:\COCOS2D-X\ARROW.IO\PROJ.WIN32\MAPCHOSE.CPP|F:\COCOS2D-X\ARROW.IO\PROJ.WIN32\PLAYER.CPP|F:\COCOS2D-X\ARROW.IO\PROJ.WIN32\PLAYERCHOSE.CPP|F:\COCOS2D-X\ARROW.IO\PROJ.WIN32\PROGRESSVIEW.CPP|F:\COCOS2D-X\ARROW.IO\PROJ.WIN32\SETTING.CPP|F:\COCOS2D-X\ARROW.IO\PROJ.WIN32\START.CPP
F:\COCOS2D-X\ARROW.IO\PROJ.WIN32\DEBUG.WIN32\HELLOWORLDSCENE.OBJ
F:\COCOS2D-X\ARROW.IO\PROJ.WIN32\DEBUG.WIN32\START.OBJ
F:\COCOS2D-X\ARROW.IO\PROJ.WIN32\DEBUG.WIN32\FONTTOUTF8.OBJ
F:\COCOS2D-X\ARROW.IO\PROJ.WIN32\DEBUG.WIN32\PLAYERCHOSE.OBJ
F:\COCOS2D-X\ARROW.IO\PROJ.WIN32\DEBUG.WIN32\BULLETBASE.OBJ
F:\COCOS2D-X\ARROW.IO\PROJ.WIN32\DEBUG.WIN32\PROGRESSVIEW.OBJ
F:\COCOS2D-X\ARROW.IO\PROJ.WIN32\DEBUG.WIN32\ENTITY.OBJ
F:\COCOS2D-X\ARROW.IO\PROJ.WIN32\DEBUG.WIN32\PLAYER.OBJ
F:\COCOS2D-X\ARROW.IO\PROJ.WIN32\DEBUG.WIN32\APPDELEGATE.OBJ
F:\COCOS2D-X\ARROW.IO\PROJ.WIN32\DEBUG.WIN32\SETTING.OBJ
F:\COCOS2D-X\ARROW.IO\PROJ.WIN32\DEBUG.WIN32\HELP.OBJ
F:\COCOS2D-X\ARROW.IO\PROJ.WIN32\DEBUG.WIN32\MAIN.OBJ
F:\COCOS2D-X\ARROW.IO\PROJ.WIN32\DEBUG.WIN32\MAPCHOSE.OBJ
F:\COCOS2D-X\ARROW.IO\PROJ.WIN32\DEBUG.WIN32\GAMEPLAYING.OBJ
^F:\COCOS2D-X\ARROW.IO\CLASSES\APPDELEGATE.CPP|F:\COCOS2D-X\ARROW.IO\PROJ.WIN32\BULLETBASE.CPP|F:\COCOS2D-X\ARROW.IO\PROJ.WIN32\GAMEPLAYING.CPP|F:\COCOS2D-X\ARROW.IO\PROJ.WIN32\PLAYER.CPP|F:\COCOS2D-X\ARROW.IO\PROJ.WIN32\START.CPP
F:\COCOS2D-X\ARROW.IO\PROJ.WIN32\DEBUG.WIN32\APPDELEGATE.OBJ
F:\COCOS2D-X\ARROW.IO\PROJ.WIN32\DEBUG.WIN32\START.OBJ
F:\COCOS2D-X\ARROW.IO\PROJ.WIN32\DEBUG.WIN32\GAMEPLAYING.OBJ
F:\COCOS2D-X\ARROW.IO\PROJ.WIN32\DEBUG.WIN32\BULLETBASE.OBJ
F:\COCOS2D-X\ARROW.IO\PROJ.WIN32\DEBUG.WIN32\PLAYER.OBJ
^F:\COCOS2D-X\ARROW.IO\CLASSES\APPDELEGATE.CPP|F:\COCOS2D-X\ARROW.IO\PROJ.WIN32\GAMEPLAYING.CPP|F:\COCOS2D-X\ARROW.IO\PROJ.WIN32\MAPCHOSE.CPP|F:\COCOS2D-X\ARROW.IO\PROJ.WIN32\PLAYER.CPP|F:\COCOS2D-X\ARROW.IO\PROJ.WIN32\START.CPP
F:\COCOS2D-X\ARROW.IO\PROJ.WIN32\DEBUG.WIN32\PLAYER.OBJ
F:\COCOS2D-X\ARROW.IO\PROJ.WIN32\DEBUG.WIN32\GAMEPLAYING.OBJ
F:\COCOS2D-X\ARROW.IO\PROJ.WIN32\DEBUG.WIN32\START.OBJ
F:\COCOS2D-X\ARROW.IO\PROJ.WIN32\DEBUG.WIN32\APPDELEGATE.OBJ
F:\COCOS2D-X\ARROW.IO\PROJ.WIN32\DEBUG.WIN32\MAPCHOSE.OBJ
^F:\COCOS2D-X\ARROW.IO\CLASSES\HELLOWORLDSCENE.CPP|F:\COCOS2D-X\ARROW.IO\PROJ.WIN32\GAMEPLAYING.CPP|F:\COCOS2D-X\ARROW.IO\PROJ.WIN32\SETTING.CPP
F:\COCOS2D-X\ARROW.IO\PROJ.WIN32\DEBUG.WIN32\SETTING.OBJ
F:\COCOS2D-X\ARROW.IO\PROJ.WIN32\DEBUG.WIN32\GAMEPLAYING.OBJ
F:\COCOS2D-X\ARROW.IO\PROJ.WIN32\DEBUG.WIN32\HELLOWORLDSCENE.OBJ
^F:\COCOS2D-X\ARROW.IO\CLASSES\APPDELEGATE.CPP|F:\COCOS2D-X\ARROW.IO\CLASSES\HELLOWORLDSCENE.CPP|F:\COCOS2D-X\ARROW.IO\PROJ.WIN32\SETTING.CPP
F:\COCOS2D-X\ARROW.IO\PROJ.WIN32\DEBUG.WIN32\SETTING.OBJ
F:\COCOS2D-X\ARROW.IO\PROJ.WIN32\DEBUG.WIN32\APPDELEGATE.OBJ
F:\COCOS2D-X\ARROW.IO\PROJ.WIN32\DEBUG.WIN32\HELLOWORLDSCENE.OBJ
^F:\COCOS2D-X\ARROW.IO\CLASSES\HELLOWORLDSCENE.CPP|F:\COCOS2D-X\ARROW.IO\PROJ.WIN32\HELP.CPP|F:\COCOS2D-X\ARROW.IO\PROJ.WIN32\SETTING.CPP
F:\COCOS2D-X\ARROW.IO\PROJ.WIN32\DEBUG.WIN32\HELP.OBJ
F:\COCOS2D-X\ARROW.IO\PROJ.WIN32\DEBUG.WIN32\HELLOWORLDSCENE.OBJ
F:\COCOS2D-X\ARROW.IO\PROJ.WIN32\DEBUG.WIN32\SETTING.OBJ
^F:\COCOS2D-X\ARROW.IO\CLASSES\HELLOWORLDSCENE.CPP|F:\COCOS2D-X\ARROW.IO\PROJ.WIN32\HELP.CPP
F:\COCOS2D-X\ARROW.IO\PROJ.WIN32\DEBUG.WIN32\HELP.OBJ
F:\COCOS2D-X\ARROW.IO\PROJ.WIN32\DEBUG.WIN32\HELLOWORLDSCENE.OBJ
^F:\COCOS2D-X\ARROW.IO\PROJ.WIN32\GAMEPLAYING.CPP|F:\COCOS2D-X\ARROW.IO\PROJ.WIN32\HELP.CPP
F:\COCOS2D-X\ARROW.IO\PROJ.WIN32\DEBUG.WIN32\GAMEPLAYING.OBJ
F:\COCOS2D-X\ARROW.IO\PROJ.WIN32\DEBUG.WIN32\HELP.OBJ
^F:\COCOS2D-X\ARROW.IO\CLASSES\APPDELEGATE.CPP|F:\COCOS2D-X\ARROW.IO\CLASSES\HELLOWORLDSCENE.CPP|F:\COCOS2D-X\ARROW.IO\PROJ.WIN32\BULLETBASE.CPP|F:\COCOS2D-X\ARROW.IO\PROJ.WIN32\ENTITY.CPP|F:\COCOS2D-X\ARROW.IO\PROJ.WIN32\EXPPROGRESS.CPP|F:\COCOS2D-X\ARROW.IO\PROJ.WIN32\FONTTOUTF8.CPP|F:\COCOS2D-X\ARROW.IO\PROJ.WIN32\GAMEPLAYING.CPP|F:\COCOS2D-X\ARROW.IO\PROJ.WIN32\HELP.CPP|F:\COCOS2D-X\ARROW.IO\PROJ.WIN32\MAIN.CPP|F:\COCOS2D-X\ARROW.IO\PROJ.WIN32\MAPCHOSE.CPP|F:\COCOS2D-X\ARROW.IO\PROJ.WIN32\PLAYER.CPP|F:\COCOS2D-X\ARROW.IO\PROJ.WIN32\PLAYERCHOSE.CPP|F:\COCOS2D-X\ARROW.IO\PROJ.WIN32\PROGRESSVIEW.CPP|F:\COCOS2D-X\ARROW.IO\PROJ.WIN32\SETTING.CPP|F:\COCOS2D-X\ARROW.IO\PROJ.WIN32\START.CPP
F:\COCOS2D-X\ARROW.IO\PROJ.WIN32\DEBUG.WIN32\EXPPROGRESS.OBJ
F:\COCOS2D-X\ARROW.IO\PROJ.WIN32\DEBUG.WIN32\SETTING.OBJ
F:\COCOS2D-X\ARROW.IO\PROJ.WIN32\DEBUG.WIN32\HELP.OBJ
F:\COCOS2D-X\ARROW.IO\PROJ.WIN32\DEBUG.WIN32\PROGRESSVIEW.OBJ
F:\COCOS2D-X\ARROW.IO\PROJ.WIN32\DEBUG.WIN32\APPDELEGATE.OBJ
F:\COCOS2D-X\ARROW.IO\PROJ.WIN32\DEBUG.WIN32\GAMEPLAYING.OBJ
F:\COCOS2D-X\ARROW.IO\PROJ.WIN32\DEBUG.WIN32\ENTITY.OBJ
F:\COCOS2D-X\ARROW.IO\PROJ.WIN32\DEBUG.WIN32\BULLETBASE.OBJ
F:\COCOS2D-X\ARROW.IO\PROJ.WIN32\DEBUG.WIN32\PLAYER.OBJ
F:\COCOS2D-X\ARROW.IO\PROJ.WIN32\DEBUG.WIN32\FONTTOUTF8.OBJ
F:\COCOS2D-X\ARROW.IO\PROJ.WIN32\DEBUG.WIN32\MAIN.OBJ
F:\COCOS2D-X\ARROW.IO\PROJ.WIN32\DEBUG.WIN32\HELLOWORLDSCENE.OBJ
F:\COCOS2D-X\ARROW.IO\PROJ.WIN32\DEBUG.WIN32\PLAYERCHOSE.OBJ
^F:\COCOS2D-X\ARROW.IO\PROJ.WIN32\ENTITY.CPP
F:\COCOS2D-X\ARROW.IO\PROJ.WIN32\DEBUG.WIN32\ENTITY.OBJ
^F:\COCOS2D-X\ARROW.IO\PROJ.WIN32\MAIN.CPP
F:\COCOS2D-X\ARROW.IO\PROJ.WIN32\DEBUG.WIN32\MAIN.OBJ
^F:\COCOS2D-X\ARROW.IO\PROJ.WIN32\PROGRESSVIEW.CPP
F:\COCOS2D-X\ARROW.IO\PROJ.WIN32\DEBUG.WIN32\PROGRESSVIEW.OBJ
^F:\COCOS2D-X\ARROW.IO\CLASSES\APPDELEGATE.CPP|F:\COCOS2D-X\ARROW.IO\PROJ.WIN32\BULLETBASE.CPP|F:\COCOS2D-X\ARROW.IO\PROJ.WIN32\EXPPROGRESS.CPP|F:\COCOS2D-X\ARROW.IO\PROJ.WIN32\GAMEPLAYING.CPP|F:\COCOS2D-X\ARROW.IO\PROJ.WIN32\MAPCHOSE.CPP|F:\COCOS2D-X\ARROW.IO\PROJ.WIN32\PLAYER.CPP|F:\COCOS2D-X\ARROW.IO\PROJ.WIN32\START.CPP
F:\COCOS2D-X\ARROW.IO\PROJ.WIN32\DEBUG.WIN32\GAMEPLAYING.OBJ
F:\COCOS2D-X\ARROW.IO\PROJ.WIN32\DEBUG.WIN32\APPDELEGATE.OBJ
F:\COCOS2D-X\ARROW.IO\PROJ.WIN32\DEBUG.WIN32\BULLETBASE.OBJ
F:\COCOS2D-X\ARROW.IO\PROJ.WIN32\DEBUG.WIN32\PLAYER.OBJ
F:\COCOS2D-X\ARROW.IO\PROJ.WIN32\DEBUG.WIN32\EXPPROGRESS.OBJ
^F:\COCOS2D-X\ARROW.IO\PROJ.WIN32\MAPCHOSE.CPP|F:\COCOS2D-X\ARROW.IO\PROJ.WIN32\START.CPP
F:\COCOS2D-X\ARROW.IO\PROJ.WIN32\DEBUG.WIN32\START.OBJ
F:\COCOS2D-X\ARROW.IO\PROJ.WIN32\DEBUG.WIN32\MAPCHOSE.OBJ
^F:\COCOS2D-X\ARROW.IO\PROJ.WIN32\MAPCHOSE.CPP|F:\COCOS2D-X\ARROW.IO\PROJ.WIN32\PLAYERCHOSE.CPP|F:\COCOS2D-X\ARROW.IO\PROJ.WIN32\START.CPP
F:\COCOS2D-X\ARROW.IO\PROJ.WIN32\DEBUG.WIN32\PLAYERCHOSE.OBJ
F:\COCOS2D-X\ARROW.IO\PROJ.WIN32\DEBUG.WIN32\START.OBJ
F:\COCOS2D-X\ARROW.IO\PROJ.WIN32\DEBUG.WIN32\MAPCHOSE.OBJ
^F:\COCOS2D-X\ARROW.IO\CLASSES\APPDELEGATE.CPP|F:\COCOS2D-X\ARROW.IO\PROJ.WIN32\GAMEPLAYING.CPP|F:\COCOS2D-X\ARROW.IO\PROJ.WIN32\MAPCHOSE.CPP|F:\COCOS2D-X\ARROW.IO\PROJ.WIN32\PLAYER.CPP|F:\COCOS2D-X\ARROW.IO\PROJ.WIN32\PLAYERCHOSE.CPP|F:\COCOS2D-X\ARROW.IO\PROJ.WIN32\START.CPP
F:\COCOS2D-X\ARROW.IO\PROJ.WIN32\DEBUG.WIN32\PLAYER.OBJ
F:\COCOS2D-X\ARROW.IO\PROJ.WIN32\DEBUG.WIN32\START.OBJ
F:\COCOS2D-X\ARROW.IO\PROJ.WIN32\DEBUG.WIN32\APPDELEGATE.OBJ
^F:\COCOS2D-X\ARROW.IO\PROJ.WIN32\GAMEPLAYING.CPP|F:\COCOS2D-X\ARROW.IO\PROJ.WIN32\MAPCHOSE.CPP|F:\COCOS2D-X\ARROW.IO\PROJ.WIN32\PLAYERCHOSE.CPP
F:\COCOS2D-X\ARROW.IO\PROJ.WIN32\DEBUG.WIN32\MAPCHOSE.OBJ
F:\COCOS2D-X\ARROW.IO\PROJ.WIN32\DEBUG.WIN32\PLAYERCHOSE.OBJ
^F:\COCOS2D-X\ARROW.IO\PROJ.WIN32\GAMEPLAYING.CPP|F:\COCOS2D-X\ARROW.IO\PROJ.WIN32\START.CPP
F:\COCOS2D-X\ARROW.IO\PROJ.WIN32\DEBUG.WIN32\START.OBJ
F:\COCOS2D-X\ARROW.IO\PROJ.WIN32\DEBUG.WIN32\GAMEPLAYING.OBJ
^F:\COCOS2D-X\ARROW.IO\CLASSES\HELLOWORLDSCENE.CPP|F:\COCOS2D-X\ARROW.IO\PROJ.WIN32\GAMEPLAYING.CPP|F:\COCOS2D-X\ARROW.IO\PROJ.WIN32\MAPCHOSE.CPP|F:\COCOS2D-X\ARROW.IO\PROJ.WIN32\PLAYERCHOSE.CPP|F:\COCOS2D-X\ARROW.IO\PROJ.WIN32\START.CPP
F:\COCOS2D-X\ARROW.IO\PROJ.WIN32\DEBUG.WIN32\START.OBJ
F:\COCOS2D-X\ARROW.IO\PROJ.WIN32\DEBUG.WIN32\MAPCHOSE.OBJ
F:\COCOS2D-X\ARROW.IO\PROJ.WIN32\DEBUG.WIN32\GAMEPLAYING.OBJ
F:\COCOS2D-X\ARROW.IO\PROJ.WIN32\DEBUG.WIN32\HELLOWORLDSCENE.OBJ
F:\COCOS2D-X\ARROW.IO\PROJ.WIN32\DEBUG.WIN32\PLAYERCHOSE.OBJ
^F:\COCOS2D-X\ARROW.IO\PROJ.WIN32\GAMEPLAYING.CPP|F:\COCOS2D-X\ARROW.IO\PROJ.WIN32\MAPCHOSE.CPP
F:\COCOS2D-X\ARROW.IO\PROJ.WIN32\DEBUG.WIN32\MAPCHOSE.OBJ
F:\COCOS2D-X\ARROW.IO\PROJ.WIN32\DEBUG.WIN32\GAMEPLAYING.OBJ
^F:\COCOS2D-X\ARROW.IO\PROJ.WIN32\GAMEPLAYING.CPP|F:\COCOS2D-X\ARROW.IO\PROJ.WIN32\SETTING.CPP
F:\COCOS2D-X\ARROW.IO\PROJ.WIN32\DEBUG.WIN32\SETTING.OBJ
F:\COCOS2D-X\ARROW.IO\PROJ.WIN32\DEBUG.WIN32\GAMEPLAYING.OBJ
^F:\COCOS2D-X\ARROW.IO\CLASSES\APPDELEGATE.CPP|F:\COCOS2D-X\ARROW.IO\CLASSES\HELLOWORLDSCENE.CPP
F:\COCOS2D-X\ARROW.IO\PROJ.WIN32\DEBUG.WIN32\APPDELEGATE.OBJ
F:\COCOS2D-X\ARROW.IO\PROJ.WIN32\DEBUG.WIN32\HELLOWORLDSCENE.OBJ
^F:\COCOS2D-X\ARROW.IO\CLASSES\APPDELEGATE.CPP|F:\COCOS2D-X\ARROW.IO\CLASSES\HELLOWORLDSCENE.CPP|F:\COCOS2D-X\ARROW.IO\PROJ.WIN32\GAMEPLAYING.CPP|F:\COCOS2D-X\ARROW.IO\PROJ.WIN32\MAPCHOSE.CPP|F:\COCOS2D-X\ARROW.IO\PROJ.WIN32\PLAYER.CPP|F:\COCOS2D-X\ARROW.IO\PROJ.WIN32\PLAYERCHOSE.CPP|F:\COCOS2D-X\ARROW.IO\PROJ.WIN32\START.CPP
F:\COCOS2D-X\ARROW.IO\PROJ.WIN32\DEBUG.WIN32\PLAYER.OBJ
F:\COCOS2D-X\ARROW.IO\PROJ.WIN32\DEBUG.WIN32\APPDELEGATE.OBJ
F:\COCOS2D-X\ARROW.IO\PROJ.WIN32\DEBUG.WIN32\START.OBJ
F:\COCOS2D-X\ARROW.IO\PROJ.WIN32\DEBUG.WIN32\PLAYERCHOSE.OBJ
F:\COCOS2D-X\ARROW.IO\PROJ.WIN32\DEBUG.WIN32\HELLOWORLDSCENE.OBJ
F:\COCOS2D-X\ARROW.IO\PROJ.WIN32\DEBUG.WIN32\MAPCHOSE.OBJ
^F:\COCOS2D-X\ARROW.IO\CLASSES\APPDELEGATE.CPP|F:\COCOS2D-X\ARROW.IO\CLASSES\HELLOWORLDSCENE.CPP|F:\COCOS2D-X\ARROW.IO\PROJ.WIN32\BULLETBASE.CPP|F:\COCOS2D-X\ARROW.IO\PROJ.WIN32\EXPPROGRESS.CPP|F:\COCOS2D-X\ARROW.IO\PROJ.WIN32\FONTTOUTF8.CPP|F:\COCOS2D-X\ARROW.IO\PROJ.WIN32\GAMEPLAYING.CPP|F:\COCOS2D-X\ARROW.IO\PROJ.WIN32\HELP.CPP|F:\COCOS2D-X\ARROW.IO\PROJ.WIN32\MAPCHOSE.CPP|F:\COCOS2D-X\ARROW.IO\PROJ.WIN32\PLAYER.CPP|F:\COCOS2D-X\ARROW.IO\PROJ.WIN32\PLAYERCHOSE.CPP|F:\COCOS2D-X\ARROW.IO\PROJ.WIN32\SETTING.CPP|F:\COCOS2D-X\ARROW.IO\PROJ.WIN32\START.CPP
F:\COCOS2D-X\ARROW.IO\PROJ.WIN32\DEBUG.WIN32\FONTTOUTF8.OBJ
F:\COCOS2D-X\ARROW.IO\PROJ.WIN32\DEBUG.WIN32\SETTING.OBJ
F:\COCOS2D-X\ARROW.IO\PROJ.WIN32\DEBUG.WIN32\APPDELEGATE.OBJ
F:\COCOS2D-X\ARROW.IO\PROJ.WIN32\DEBUG.WIN32\HELP.OBJ
F:\COCOS2D-X\ARROW.IO\PROJ.WIN32\DEBUG.WIN32\PLAYER.OBJ
F:\COCOS2D-X\ARROW.IO\PROJ.WIN32\DEBUG.WIN32\BULLETBASE.OBJ
F:\COCOS2D-X\ARROW.IO\PROJ.WIN32\DEBUG.WIN32\EXPPROGRESS.OBJ
F:\COCOS2D-X\ARROW.IO\PROJ.WIN32\DEBUG.WIN32\GAMEPLAYING.OBJ
^F:\COCOS2D-X\ARROW.IO\PROJ.WIN32\FONTTOUTF8.CPP
F:\COCOS2D-X\ARROW.IO\PROJ.WIN32\DEBUG.WIN32\FONTTOUTF8.OBJ
^F:\COCOS2D-X\ARROW.IO\PROJ.WIN32\HELP.CPP
F:\COCOS2D-X\ARROW.IO\PROJ.WIN32\DEBUG.WIN32\HELP.OBJ
^F:\COCOS2D-X\ARROW.IO\PROJ.WIN32\SETTING.CPP
F:\COCOS2D-X\ARROW.IO\PROJ.WIN32\DEBUG.WIN32\SETTING.OBJ
^F:\COCOS2D-X\ARROW.IO\CLASSES\HELLOWORLDSCENE.CPP|F:\COCOS2D-X\ARROW.IO\PROJ.WIN32\GAMEPLAYING.CPP|F:\COCOS2D-X\ARROW.IO\PROJ.WIN32\MAPCHOSE.CPP|F:\COCOS2D-X\ARROW.IO\PROJ.WIN32\PLAYER.CPP|F:\COCOS2D-X\ARROW.IO\PROJ.WIN32\PLAYERCHOSE.CPP|F:\COCOS2D-X\ARROW.IO\PROJ.WIN32\START.CPP
F:\COCOS2D-X\ARROW.IO\PROJ.WIN32\DEBUG.WIN32\START.OBJ
F:\COCOS2D-X\ARROW.IO\PROJ.WIN32\DEBUG.WIN32\PLAYER.OBJ
F:\COCOS2D-X\ARROW.IO\PROJ.WIN32\DEBUG.WIN32\HELLOWORLDSCENE.OBJ
F:\COCOS2D-X\ARROW.IO\PROJ.WIN32\DEBUG.WIN32\GAMEPLAYING.OBJ
F:\COCOS2D-X\ARROW.IO\PROJ.WIN32\DEBUG.WIN32\PLAYERCHOSE.OBJ
^F:\COCOS2D-X\ARROW.IO\CLASSES\HELLOWORLDSCENE.CPP
F:\COCOS2D-X\ARROW.IO\PROJ.WIN32\DEBUG.WIN32\HELLOWORLDSCENE.OBJ
^F:\COCOS2D-X\ARROW.IO\PROJ.WIN32\MAPCHOSE.CPP
F:\COCOS2D-X\ARROW.IO\PROJ.WIN32\DEBUG.WIN32\VC141.PDB
F:\COCOS2D-X\ARROW.IO\PROJ.WIN32\DEBUG.WIN32\VC141.IDB
F:\COCOS2D-X\ARROW.IO\PROJ.WIN32\DEBUG.WIN32\MAPCHOSE.OBJ
^F:\COCOS2D-X\ARROW.IO\CLASSES\APPDELEGATE.CPP|F:\COCOS2D-X\ARROW.IO\PROJ.WIN32\GAMEPLAYING.CPP
F:\COCOS2D-X\ARROW.IO\PROJ.WIN32\DEBUG.WIN32\GAMEPLAYING.OBJ
F:\COCOS2D-X\ARROW.IO\PROJ.WIN32\DEBUG.WIN32\APPDELEGATE.OBJ
^F:\COCOS2D-X\ARROW.IO\PROJ.WIN32\GAMEPLAYING.CPP|F:\COCOS2D-X\ARROW.IO\PROJ.WIN32\PLAYERCHOSE.CPP
F:\COCOS2D-X\ARROW.IO\PROJ.WIN32\DEBUG.WIN32\PLAYERCHOSE.OBJ
F:\COCOS2D-X\ARROW.IO\PROJ.WIN32\DEBUG.WIN32\GAMEPLAYING.OBJ
^F:\COCOS2D-X\ARROW.IO\PROJ.WIN32\PLAYERCHOSE.CPP
F:\COCOS2D-X\ARROW.IO\PROJ.WIN32\DEBUG.WIN32\VC141.PDB
F:\COCOS2D-X\ARROW.IO\PROJ.WIN32\DEBUG.WIN32\VC141.IDB
F:\COCOS2D-X\ARROW.IO\PROJ.WIN32\DEBUG.WIN32\PLAYERCHOSE.OBJ
^F:\COCOS2D-X\ARROW.IO\PROJ.WIN32\EXPPROGRESS.CPP|F:\COCOS2D-X\ARROW.IO\PROJ.WIN32\GAMEPLAYING.CPP|F:\COCOS2D-X\ARROW.IO\PROJ.WIN32\PLAYER.CPP
F:\COCOS2D-X\ARROW.IO\PROJ.WIN32\DEBUG.WIN32\EXPPROGRESS.OBJ
F:\COCOS2D-X\ARROW.IO\PROJ.WIN32\DEBUG.WIN32\GAMEPLAYING.OBJ
F:\COCOS2D-X\ARROW.IO\PROJ.WIN32\DEBUG.WIN32\PLAYER.OBJ
^F:\COCOS2D-X\ARROW.IO\PROJ.WIN32\BULLETBASE.CPP|F:\COCOS2D-X\ARROW.IO\PROJ.WIN32\PLAYER.CPP
F:\COCOS2D-X\ARROW.IO\PROJ.WIN32\DEBUG.WIN32\BULLETBASE.OBJ
F:\COCOS2D-X\ARROW.IO\PROJ.WIN32\DEBUG.WIN32\PLAYER.OBJ
^F:\COCOS2D-X\ARROW.IO\CLASSES\APPDELEGATE.CPP|F:\COCOS2D-X\ARROW.IO\PROJ.WIN32\GAMEPLAYING.CPP|F:\COCOS2D-X\ARROW.IO\PROJ.WIN32\PLAYER.CPP|F:\COCOS2D-X\ARROW.IO\PROJ.WIN32\START.CPP
F:\COCOS2D-X\ARROW.IO\PROJ.WIN32\DEBUG.WIN32\GAMEPLAYING.OBJ
F:\COCOS2D-X\ARROW.IO\PROJ.WIN32\DEBUG.WIN32\PLAYER.OBJ
F:\COCOS2D-X\ARROW.IO\PROJ.WIN32\DEBUG.WIN32\START.OBJ
F:\COCOS2D-X\ARROW.IO\PROJ.WIN32\DEBUG.WIN32\APPDELEGATE.OBJ
^F:\COCOS2D-X\ARROW.IO\PROJ.WIN32\GAMEPLAYING.CPP|F:\COCOS2D-X\ARROW.IO\PROJ.WIN32\PLAYER.CPP
F:\COCOS2D-X\ARROW.IO\PROJ.WIN32\DEBUG.WIN32\GAMEPLAYING.OBJ
F:\COCOS2D-X\ARROW.IO\PROJ.WIN32\DEBUG.WIN32\PLAYER.OBJ
^F:\COCOS2D-X\ARROW.IO\CLASSES\APPDELEGATE.CPP|F:\COCOS2D-X\ARROW.IO\PROJ.WIN32\BULLETBASE.CPP|F:\COCOS2D-X\ARROW.IO\PROJ.WIN32\EXPPROGRESS.CPP|F:\COCOS2D-X\ARROW.IO\PROJ.WIN32\GAMEPLAYING.CPP|F:\COCOS2D-X\ARROW.IO\PROJ.WIN32\PLAYER.CPP|F:\COCOS2D-X\ARROW.IO\PROJ.WIN32\START.CPP
F:\COCOS2D-X\ARROW.IO\PROJ.WIN32\DEBUG.WIN32\PLAYER.OBJ
F:\COCOS2D-X\ARROW.IO\PROJ.WIN32\DEBUG.WIN32\GAMEPLAYING.OBJ
F:\COCOS2D-X\ARROW.IO\PROJ.WIN32\DEBUG.WIN32\BULLETBASE.OBJ
F:\COCOS2D-X\ARROW.IO\PROJ.WIN32\DEBUG.WIN32\APPDELEGATE.OBJ
F:\COCOS2D-X\ARROW.IO\PROJ.WIN32\DEBUG.WIN32\EXPPROGRESS.OBJ
F:\COCOS2D-X\ARROW.IO\PROJ.WIN32\DEBUG.WIN32\START.OBJ
^F:\COCOS2D-X\ARROW.IO\PROJ.WIN32\BULLETBASE.CPP
F:\COCOS2D-X\ARROW.IO\PROJ.WIN32\DEBUG.WIN32\VC141.PDB
^F:\COCOS2D-X\ARROW.IO\CLASSES\APPDELEGATE.CPP|F:\COCOS2D-X\ARROW.IO\PROJ.WIN32\EXPPROGRESS.CPP|F:\COCOS2D-X\ARROW.IO\PROJ.WIN32\GAMEPLAYING.CPP|F:\COCOS2D-X\ARROW.IO\PROJ.WIN32\PLAYER.CPP|F:\COCOS2D-X\ARROW.IO\PROJ.WIN32\START.CPP
F:\COCOS2D-X\ARROW.IO\PROJ.WIN32\DEBUG.WIN32\GAMEPLAYING.OBJ
F:\COCOS2D-X\ARROW.IO\PROJ.WIN32\DEBUG.WIN32\APPDELEGATE.OBJ
F:\COCOS2D-X\ARROW.IO\PROJ.WIN32\DEBUG.WIN32\START.OBJ
F:\COCOS2D-X\ARROW.IO\PROJ.WIN32\DEBUG.WIN32\PLAYER.OBJ
F:\COCOS2D-X\ARROW.IO\PROJ.WIN32\DEBUG.WIN32\EXPPROGRESS.OBJ
^F:\COCOS2D-X\ARROW.IO\CLASSES\APPDELEGATE.CPP
F:\COCOS2D-X\ARROW.IO\PROJ.WIN32\DEBUG.WIN32\VC141.PDB
^F:\COCOS2D-X\ARROW.IO\PROJ.WIN32\EXPPROGRESS.CPP
F:\COCOS2D-X\ARROW.IO\PROJ.WIN32\DEBUG.WIN32\VC141.PDB
^F:\COCOS2D-X\ARROW.IO\PROJ.WIN32\PLAYER.CPP
F:\COCOS2D-X\ARROW.IO\PROJ.WIN32\DEBUG.WIN32\VC141.PDB
^F:\COCOS2D-X\ARROW.IO\PROJ.WIN32\START.CPP
F:\COCOS2D-X\ARROW.IO\PROJ.WIN32\DEBUG.WIN32\VC141.PDB
^F:\COCOS2D-X\ARROW.IO\PROJ.WIN32\GAMEPLAYING.CPP
F:\COCOS2D-X\ARROW.IO\PROJ.WIN32\DEBUG.WIN32\VC141.PDB
F:\COCOS2D-X\ARROW.IO\PROJ.WIN32\DEBUG.WIN32\VC141.IDB
F:\COCOS2D-X\ARROW.IO\PROJ.WIN32\DEBUG.WIN32\GAMEPLAYING.OBJ
